<?xml version="1.0" encoding="utf-8"?>
<!-- Generator: Adobe Illustrator 22.0.1, SVG Export Plug-In . SVG Version: 6.00 Build 0)  -->
<svg version="1.1" id="Calque_1" xmlns="http://www.w3.org/2000/svg" xmlns:xlink="http://www.w3.org/1999/xlink" x="0px" y="0px"
	 viewBox="0 0 358.7 797" style="enable-background:new 0 0 358.7 797;" xml:space="preserve">
<style type="text/css">
	.st0{fill:none;}
	.st1{fill:none;stroke:#E84D14;stroke-width:79.7011;stroke-linecap:round;stroke-linejoin:round;stroke-miterlimit:10;}
	.st2{fill:none;stroke:#E84D14;stroke-width:39.8505;stroke-linecap:round;stroke-linejoin:round;stroke-miterlimit:10;}
</style>
<path class="st0" d="M0,796.1h358.7v-797H0V796.1z"/>
<g transform="matrix(0.866026,-0.499999,0.499999,0.866026,0.000000,0.000000)">
	<path class="st1" d="M-189.6,487.7L58.8,217c13.5,2.4,25.7,9.4,34.5,19.9L-17,587.3"/>
</g>
<path class="st2" d="M91.7,463.4H267"/>
</svg>
